﻿<?xml version="1.0" encoding="utf-8"?>
<svg version="1.1" xmlns:xlink="http://www.w3.org/1999/xlink" width="13px" height="13px" viewBox="512 253  13 13" xmlns="http://www.w3.org/2000/svg">
  <path d="M 518.5 253  C 522.14 253  525 255.86  525 259.5  C 525 263.14  522.14 266  518.5 266  C 514.86 266  512 263.14  512 259.5  C 512 255.86  514.86 253  518.5 253  Z " fill-rule="nonzero" fill="#f8f8f8" stroke="none" />
  <path d="M 518.5 253.5  C 521.86 253.5  524.5 256.14  524.5 259.5  C 524.5 262.86  521.86 265.5  518.5 265.5  C 515.14 265.5  512.5 262.86  512.5 259.5  C 512.5 256.14  515.14 253.5  518.5 253.5  Z " stroke-width="1" stroke="#797979" fill="none" />
  <path d="M 518.5 262.75  C 516.68 262.75  515.25 261.32  515.25 259.5  C 515.25 257.68  516.68 256.25  518.5 256.25  C 520.32 256.25  521.75 257.68  521.75 259.5  C 521.75 261.32  520.32 262.75  518.5 262.75  " fill-rule="nonzero" fill="#797979" stroke="none" />
</svg>