﻿<?xml version="1.0" encoding="utf-8"?>
<svg version="1.1" xmlns:xlink="http://www.w3.org/1999/xlink" width="13px" height="13px" viewBox="195 253  13 13" xmlns="http://www.w3.org/2000/svg">
  <path d="M 201.5 253  C 205.14 253  208 255.86  208 259.5  C 208 263.14  205.14 266  201.5 266  C 197.86 266  195 263.14  195 259.5  C 195 255.86  197.86 253  201.5 253  Z " fill-rule="nonzero" fill="#f8f8f8" stroke="none" />
  <path d="M 201.5 253.5  C 204.86 253.5  207.5 256.14  207.5 259.5  C 207.5 262.86  204.86 265.5  201.5 265.5  C 198.14 265.5  195.5 262.86  195.5 259.5  C 195.5 256.14  198.14 253.5  201.5 253.5  Z " stroke-width="1" stroke="#797979" fill="none" />
  <path d="M 201.5 262.75  C 199.68 262.75  198.25 261.32  198.25 259.5  C 198.25 257.68  199.68 256.25  201.5 256.25  C 203.32 256.25  204.75 257.68  204.75 259.5  C 204.75 261.32  203.32 262.75  201.5 262.75  " fill-rule="nonzero" fill="#797979" stroke="none" />
</svg>