﻿<?xml version="1.0" encoding="utf-8"?>
<svg version="1.1" xmlns:xlink="http://www.w3.org/1999/xlink" width="13px" height="13px" viewBox="602 632  13 13" xmlns="http://www.w3.org/2000/svg">
  <path d="M 608.5 632  C 612.14 632  615 634.86  615 638.5  C 615 642.14  612.14 645  608.5 645  C 604.86 645  602 642.14  602 638.5  C 602 634.86  604.86 632  608.5 632  Z " fill-rule="nonzero" fill="#910012" stroke="none" />
  <path d="M 608.5 632.5  C 611.86 632.5  614.5 635.14  614.5 638.5  C 614.5 641.86  611.86 644.5  608.5 644.5  C 605.14 644.5  602.5 641.86  602.5 638.5  C 602.5 635.14  605.14 632.5  608.5 632.5  Z " stroke-width="1" stroke="#797979" fill="none" />
</svg>