﻿<?xml version="1.0" encoding="utf-8"?>
<svg version="1.1" xmlns:xlink="http://www.w3.org/1999/xlink" width="13px" height="13px" viewBox="285 632  13 13" xmlns="http://www.w3.org/2000/svg">
  <path d="M 291.5 632  C 295.14 632  298 634.86  298 638.5  C 298 642.14  295.14 645  291.5 645  C 287.86 645  285 642.14  285 638.5  C 285 634.86  287.86 632  291.5 632  Z " fill-rule="nonzero" fill="#910012" stroke="none" />
  <path d="M 291.5 632.5  C 294.86 632.5  297.5 635.14  297.5 638.5  C 297.5 641.86  294.86 644.5  291.5 644.5  C 288.14 644.5  285.5 641.86  285.5 638.5  C 285.5 635.14  288.14 632.5  291.5 632.5  Z " stroke-width="1" stroke="#797979" fill="none" />
  <path d="M 291.5 641.75  C 289.68 641.75  288.25 640.32  288.25 638.5  C 288.25 636.68  289.68 635.25  291.5 635.25  C 293.32 635.25  294.75 636.68  294.75 638.5  C 294.75 640.32  293.32 641.75  291.5 641.75  " fill-rule="nonzero" fill="#797979" stroke="none" />
</svg>